{
	"authors": [
		"rcorre"
	],
	"configurations": [
		{
			"name": "library",
			"targetType": "library"
		},
		{
			"importPaths": [
				"src",
				"tests"
			],
			"name": "unittest",
			"targetType": "library",
			"sourcePaths": [
				"src",
				"tests"
			]
		}
	],
	"importPaths": [
		"src/"
	],
	"name": "jsonizer",
	"version": "0.6.0",
	"targetType": "library",
	"license": "MIT",
	"copyright": "Copyright © 2015, rcorre",
	"description": "Flexible JSON serializer requiring minimal boilerplate",
	"sourcePaths": [
		"src/"
	]
}